<svg version="1.1" xmlns="http://www.w3.org/2000/svg" xmlns:xlink="http://www.w3.org/1999/xlink" x="0px" y="0px" width="47px" height="47px" viewBox="-516 281 47 47" enable-background="new -516 281 47 47" xml:space="preserve">
	<circle opacity="0.2" fill="none" stroke="#707070" stroke-miterlimit="10" enable-background="new    " cx="-492.2" cy="304.9" r="22.2"/>
	<polygon fill="#CACACA" points="-503.1,308.5 -498.4,308.5 -493.2,313.2 -493.2,296.6 -498.3,301.3 -503.1,301.3 "/>
</svg>
