<svg version="1.1" id="Layer_1" xmlns="http://www.w3.org/2000/svg" xmlns:xlink="http://www.w3.org/1999/xlink" x="0px" y="0px" width="35px" height="35px" viewBox="0 0 35 35" enable-background="new 0 0 35 35" xml:space="preserve">
	<pattern x="-132.6" y="-188.7" width="78" height="68" patternUnits="userSpaceOnUse" id="New_Pattern_Swatch_1" viewBox="0 -68 78 68" overflow="visible">
		<g>
			<polygon fill="none" points="0,0 78,0 78,-68 0,-68 		"/>
			<polygon fill="#0C2B57" points="78,0 0,0 0,-68 78,-68 		"/>
		</g>
	</pattern>
	<pattern id="SVGID_1_" xlink:href="#New_Pattern_Swatch_1" patternTransform="matrix(1 0 0 1 949.9463 -464.0354)"></pattern>
	<circle fill="none" stroke="#96A4B6" stroke-miterlimit="10" cx="17.4" cy="17.3" r="15.5"/>
	<pattern id="f_1_" xlink:href="#New_Pattern_Swatch_1" patternTransform="matrix(1 0 0 1 927.9463 -411.0354)"></pattern>
	<path id="f_10_" fill="#0C2B57" d="M18.1,24.5v-6.7h2.3l0.4-2.6h-2.6v-1.6c0-0.7,0.2-1.3,1.3-1.3h1.4V9.7c-0.3,0-1.1-0.1-2-0.1
	c-2,0-3.4,1.2-3.4,3.5V15h-2.3v2.6h2.2v6.7L18.1,24.5L18.1,24.5z"/>
</svg>
