<?xml version="1.0" encoding="utf-8"?>
<!-- Generator: Adobe Illustrator 19.1.0, SVG Export Plug-In . SVG Version: 6.00 Build 0)  -->
<svg version="1.1" id="Layer_1" xmlns="http://www.w3.org/2000/svg" xmlns:xlink="http://www.w3.org/1999/xlink" x="0px" y="0px"
	 width="68.5px" height="61.9px" viewBox="0 0 68.5 61.9" enable-background="new 0 0 68.5 61.9" xml:space="preserve">
<g>
	<path fill="none" stroke="#C0C8D0" stroke-width="2" stroke-miterlimit="10" d="M63,29.9V9c0-2.2-1.9-4.1-4.1-4.1H8.1
		C5.9,4.9,4,6.8,4,9v20.9C4,32.1,5.9,34,8.1,34h50.8C61.2,34.1,63,32.2,63,29.9z"/>
	<path fill="none" stroke="#C0C8D0" stroke-width="2" stroke-miterlimit="10" d="M11.5,33.5v-28 M55.6,5.5v28"/>
	<path fill="#C0C8D0" d="M9.7,19.5c0-1-0.8-1.9-1.9-1.9s-1.9,0.8-1.9,1.9s0.8,1.9,1.9,1.9S9.7,20.5,9.7,19.5z"/>
	<circle opacity="0.5" fill="#E7EAED" enable-background="new    " cx="34.5" cy="22.8" r="8.2"/>
</g>
<polygon fill="#C0C8D0" points="36.4,37.6 36.4,26.6 35.1,25.3 33.9,25.3 32.6,26.6 32.6,45.5 31,45.5 27.1,41.8 25.1,41.8 
	24.1,42.5 24.1,44.8 30.8,51.5 35.4,56 35.4,59.2 47.4,59.2 47.4,54.8 49.7,52.6 49.7,38.9 48.5,37.6 "/>
</svg>
