<svg
	class="stroke ani"
	version="1.1"
	xmlns="http://www.w3.org/2000/svg"
	xmlns:xlink="http://www.w3.org/1999/xlink"
	x="0px"
	y="0px"
	width="100px"
	height="110px"
	viewBox="-217 193.5 100 110"
	enable-background="new -217 193.5 100 110"
	xml:space="preserve">
	<polygon fill="none" stroke="#5A9DDC" stroke-miterlimit="10" stroke-dasharray="3.7717,1.8859" points="-167.4,301.6 -211.5,275.6 -211,224.5 -166.6,199.4
	-122.5,225.4 -123,276.5 "/>
	<polygon fill="#5A9DDC" points="-167.4,296.9 -207.4,273.3 -206.9,226.9 -166.6,204.1 -126.6,227.7 -127.1,274.1 "/>
	<g>
		<path
			fill="#FFFFFF"
			d="M-167.3,269.1l-1.1-0.6c-11-5.6-16.6-16.2-16.6-31.5v-1.4h1.4c7.5,0,15.3-5.7,15.4-5.8l0.8-0.6l0.8,0.6
		c0.1,0.1,7.9,5.8,15.4,5.8h1.4v1.4c0,15.3-5.6,25.9-16.6,31.5L-167.3,269.1z M-182.1,238.4c0.3,13.4,5.3,22.6,14.8,27.6
		c9.5-4.9,14.5-14.2,14.8-27.6c-6.5-0.5-12.6-4.2-14.8-5.7C-169.5,234.1-175.6,237.9-182.1,238.4z"/>
	</g>
	<style>
		<![CDATA[
		.stroke {
			stroke-dashoffset: 200;
			stroke-dasharray: 200;
		}
		.ani {
			animation: circle-draw 10s linear infinite;
		}
		@keyframes circle-draw {
			100% {
				stroke-dashoffset: 0;
			}
		}

		]]>
	</style>
</svg>
